Food Prices for Turkey
…
The products with maximum price change in vegetables and fruits

We were interested in yearly average price changes per food, so we added YoY_growth column and sorted the data according to YoY_growth to see the highest price changes in vegetables and fruits and took top 3 for detailed analysis.

price_change = refined_data %>%
  filter(market=="National Average" & type=="vegetables and fruits")%>%
  group_by(name, year) %>%
  summarise(yearly_average_price=mean(value)) %>%
  mutate(YoY_growth = (yearly_average_price/lag(yearly_average_price))^(1/(year-lag(year))) - 1) %>%
  arrange(desc(YoY_growth))
price_change

## # A tibble: 63 x 4
## # Groups:   name [14]
##    name                             year yearly_average_price YoY_growth
##    <fct>                           <dbl>                <dbl>      <dbl>
##  1 Eggplants - Retail               2017                 5.47      1.14 
##  2 Onions - Retail                  2018                 2.23      1.07 
##  3 Cucumbers (greenhouse) - Retail  2017                 4.38      0.904
##  4 Oranges - Retail                 2018                 2.70      0.655
##  5 Bananas - Retail                 2018                 8.54      0.422
##  6 Tomatoes - Retail                2018                 3.38      0.362
##  7 Garlic - Retail                  2016                14.9       0.357
##  8 Eggplants - Retail               2016                 2.55      0.330
##  9 Cauliflower - Retail             2015                 2.77      0.302
## 10 Tomatoes - Retail                2017                 2.48      0.296
## # ... with 53 more rows
…
