Summary of Food Prices for Turkey
…
The products with maximum price change

We were interested in yearly average price changes per food, so we added YoY_growth column and sorted the data according to YoY_growth to see the highest price changes.

price_change = refined_data %>%
  filter(market=="National Average")%>%
  group_by(name, year) %>%
  summarise(yearly_average_price=mean(value)) %>%
  mutate(YoY_growth = (yearly_average_price/lag(yearly_average_price))^(1/(year-lag(year))) - 1) %>%
  arrange(desc(YoY_growth))
price_change

## # A tibble: 233 x 4
## # Groups:   name [46]
##    name                             year yearly_average_price YoY_growth
##    <fct>                           <dbl>                <dbl>      <dbl>
##  1 Eggplants - Retail               2017                 5.47      1.14 
##  2 Onions - Retail                  2018                 2.23      1.07 
##  3 Cucumbers (greenhouse) - Retail  2017                 4.38      0.904
##  4 Potatoes - Retail                2018                 2.28      0.812
##  5 Oil (olive) - Retail             2015                21.6       0.697
##  6 Oranges - Retail                 2018                 2.70      0.655
##  7 Cheese - Retail                  2018                24.2       0.566
##  8 Fish (fresh) - Retail            2018                23.7       0.435
##  9 Meat (mutton) - Retail           2018                47.4       0.432
## 10 Bananas - Retail                 2018                 8.54      0.422
## # ... with 223 more rows
…
